[gd_scene load_steps=4 format=2]

[ext_resource path="res://Objetos/assets/IMG_7753.PNG" type="Texture" id=2]

[sub_resource type="AtlasTexture" id=1]
flags = 4
atlas = ExtResource( 2 )
region = Rect2( 1077.14, 136.678, 360.964, 323.656 )

[sub_resource type="CapsuleShape2D" id=2]
radius = 47.4199
height = 116.116

[node name="Castillo" type="StaticBody2D"]

[node name="Sprite" type="Sprite" parent="."]
position = Vector2( -0.583251, 14.3682 )
scale = Vector2( 0.737859, 0.737859 )
texture = SubResource( 1 )

[node name="CollisionShape2D" type="CollisionShape2D" parent="."]
rotation = 1.5708
shape = SubResource( 2 )
