[gd_scene load_steps=4 format=2]

[ext_resource path="res://Objetos/assets/IMG_7755.PNG" type="Texture" id=1]

[sub_resource type="AtlasTexture" id=1]
flags = 4
atlas = ExtResource( 1 )
region = Rect2( 143.994, 537.709, 209.928, 300.54 )

[sub_resource type="CapsuleShape2D" id=2]
radius = 49.6942
height = 56.8397

[node name="SillaPlayera1" type="StaticBody2D"]

[node name="Sprite" type="Sprite" parent="."]
position = Vector2( -2.37836, -83.2445 )
texture = SubResource( 1 )

[node name="CollisionShape2D" type="CollisionShape2D" parent="."]
rotation = 1.5708
shape = SubResource( 2 )
