[gd_scene load_steps=7 format=2]

[ext_resource path="res://assets/Personaje.png" type="Texture" id=1]

[sub_resource type="CircleShape2D" id=1]
radius = 48.0416

[sub_resource type="AtlasTexture" id=2]
flags = 4
atlas = ExtResource( 1 )
region = Rect2( 0, 0, 240, 319 )

[sub_resource type="AtlasTexture" id=3]
flags = 4
atlas = ExtResource( 1 )
region = Rect2( 480, 0, 240, 319 )

[sub_resource type="AtlasTexture" id=4]
flags = 4
atlas = ExtResource( 1 )
region = Rect2( 240, 0, 240, 319 )

[sub_resource type="SpriteFrames" id=5]
animations = [ {
"frames": [ SubResource( 2 ), SubResource( 3 ), SubResource( 4 ) ],
"loop": true,
"name": "default",
"speed": 5.0
} ]

[node name="Mujer1" type="StaticBody2D"]
modulate = Color( 0, 0, 0, 1 )
scale = Vector2( 1.35, 1.35 )

[node name="StaticBody2D" type="CollisionShape2D" parent="."]
shape = SubResource( 1 )

[node name="AnimatedSprite" type="AnimatedSprite" parent="."]
position = Vector2( 7, -90 )
frames = SubResource( 5 )
